Indicator estimation procedures • forestindicators
…
Example with data from forestables

library(forestables)
#> Loading required package: data.table
#> Loading required package: dtplyr
ifn_output_example
#> # A tibble: 8,997 × 24
#>    id_unique_code    year plot  coordx coordy coord_sys   crs  elev aspect slope
#>    <chr>            <int> <chr>  <dbl>  <dbl> <chr>     <dbl> <dbl>  <dbl> <dbl>
#>  1 08_0001_NN_A1_A1  1990 0001  402000 4.68e6 ED50      23031  1900     NA    NA
#>  2 08_0002_NN_A1_A1  1990 0002  400000 4.68e6 ED50      23031  1700     NA    NA
#>  3 08_0003_NN_A1_A1  1990 0003  401000 4.68e6 ED50      23031  1700     NA    NA
#>  4 08_0004_NN_A1_A1  1990 0004  402000 4.68e6 ED50      23031  1400     NA    NA
#>  5 08_0005_NN_A1_A1  1990 0005  400000 4.68e6 ED50      23031  1300     NA    NA
#>  6 08_0006_NN_A1_A1  1990 0006  397000 4.68e6 ED50      23031  1700     NA    NA
#>  7 08_0007_NN_A1_xx  1990 0007  399000 4.68e6 ED50      23031  1400     NA    NA
#>  8 08_0008_NN_A1_xx  1990 0008  401000 4.68e6 ED50      23031  1100     NA    NA
#>  9 08_0009_NN_A1_xx  1990 0009  402000 4.68e6 ED50      23031  1100     52    NA
#> 10 08_0010_NN_A1_xx  1990 0010  394000 4.68e6 ED50      23031  1500     NA    NA
#> # ℹ 8,987 more rows
#> # ℹ 14 more variables: country <chr>, version <chr>, class <chr>,
#> #   subclass <chr>, province_code <chr>, province_name_original <chr>,
#> #   ca_name_original <chr>, sheet_ntm <chr>, huso <dbl>, slope_mean <chr>,
#> #   type <int>, tree <list>, understory <list>, regen <list>
…
estimate_indicators(c("live_tree_density", 
                      "live_tree_basal_area",
                      "mean_tree_height",
                      "dominant_tree_height", 
                      "dominant_tree_diameter",
                      "quadratic_mean_tree_diameter",
                      "hart_becking_index"), 
                    plant_dynamic_input = x, 
                    verbose = FALSE)
#> # A tibble: 1,568 × 9
#>    id_stand   date       live_tree_density live_tree_basal_area mean_tree_height
#>    <chr>      <date>                 <dbl>                <dbl>            <dbl>
#>  1 08_0001_N… 2015-01-01              638.                 30.5             9.99
#>  2 08_0002_N… 2014-01-01              162.                 16.3            14.1 
#>  3 08_0003_N… 2015-01-01              827.                 26.0             8.91
#>  4 08_0004_N… 2014-01-01             1924.                 18.5             7.41
#>  5 08_0005_N… 2014-01-01              732.                 18.1             7.00
#>  6 08_0006_N… 2014-01-01              387.                 33.2            11.8 
#>  7 08_0009_x… 2016-01-01             1625.                 32.0             7.42
#>  8 08_0014_N… 2015-01-01              679.                 21.1            13.2 
#>  9 08_0016_x… 2014-01-01             1187.                 41.7            14.2 
#> 10 08_0020_N… 2015-01-01             2088.                 61.6             9.95
#> # ℹ 1,558 more rows
#> # ℹ 4 more variables: dominant_tree_height <dbl>, dominant_tree_diameter <dbl>,
#> #   quadratic_mean_tree_diameter <dbl>, hart_becking_index <dbl>
…
